1 18 11.076292
1 19 9.015258
1 20 8.584998
1 21 7.987933
1 22 7.272101
2 18 9.840472
2 19 9.397031
2 20 9.020460
2 21 8.345796
2 22 7.678312
3 18 9.999554
3 19 9.463787
3 20 9.010693
3 21 8.456691
3 22 7.707704
4 18 9.990032
4 19 9.443375
4 20 9.099720
4 21 8.355543
4 22 7.792112
5 18 10.036739
5 19 9.494724
5 20 9.203651
5 21 8.319026
5 22 8.026113
6 18 9.827285
6 19 9.667324
6 20 8.990003
6 21 8.568176
6 22 7.775908
7 18 11.720154
7 19 10.496428
7 20 9.066178
7 21 8.676380
7 22 8.220138
8 18 10.057201
8 19 10.257855
8 20 9.436462
8 21 8.825748
8 22 7.874146
9 18 9.953946
9 19 10.132172
9 20 9.746546
9 21 8.542930
9 22 7.741749
10 18 10.267150
10 19 9.395548
10 20 9.077725
10 21 8.666081
10 22 7.908983
